{
  "photos": {
    "page": 1,
    "pages": 10,
    "perpage": 100,
    "total": 1000,
    "photo": [
      {
        "id": "51228108867",
        "owner": "192844344@N07",
        "secret": "c161f982a8",
        "server": "65535",
        "farm": 66,
        "title": "465288534",
        "ispublic": 1,
        "isfriend": 0,
        "isfamily": 0
      },
      {
        "id": "51228110667",
        "owner": "40409040@N00",
        "secret": "eb0ca3371f",
        "server": "65535",
        "farm": 66,
        "title": "Photo",
        "ispublic": 1,
        "isfriend": 0,
        "isfamily": 0
      },
      {
        "id": "51228112957",
        "owner": "162515710@N04",
        "secret": "fdee2ae8d8",
        "server": "65535",
        "farm": 66,
        "title": "Shut up 🌺",
        "ispublic": 1,
        "isfriend": 0,
        "isfamily": 0
      },
      {
        "id": "51228116362",
        "owner": "153171049@N04",
        "secret": "0d2d9ea433",
        "server": "65535",
        "farm": 66,
        "title": "entry-1005-da139b78020d4ca9a59b13057ba4a0b9.jpeg",
        "ispublic": 1,
        "isfriend": 0,
        "isfamily": 0
      },
      {
        "id": "51228117417",
        "owner": "8142229@N08",
        "secret": "5f251bb8f1",
        "server": "65535",
        "farm": 66,
        "title": "Meissen overhead",
        "ispublic": 1,
        "isfriend": 0,
        "isfamily": 0
      },
      {
        "id": "51228117577",
        "owner": "56326852@N02",
        "secret": "c201993ef4",
        "server": "65535",
        "farm": 66,
        "title": "Midnight Water-29.jpg",
        "ispublic": 1,
        "isfriend": 0,
        "isfamily": 0
      },
      {
        "id": "51228119122",
        "owner": "185288333@N07",
        "secret": "b4a7f74e02",
        "server": "65535",
        "farm": 66,
        "title": "N-2021-06-06-2320_f",
        "ispublic": 1,
        "isfriend": 0,
        "isfamily": 0
      },
      {
        "id": "51228119902",
        "owner": "60047372@N00",
        "secret": "af71b06ef0",
        "server": "65535",
        "farm": 66,
        "title": "Oaxaca Mexico Zapotec Blouse",
        "ispublic": 1,
        "isfriend": 0,
        "isfamily": 0
      },
      {
        "id": "51228120212",
        "owner": "63458818@N00",
        "secret": "811ee77e32",
        "server": "65535",
        "farm": 66,
        "title": "L1060378.jpg",
        "ispublic": 1,
        "isfriend": 0,
        "isfamily": 0
      },
      {
        "id": "51228120727",
        "owner": "69646792@N07",
        "secret": "7671e8a4ec",
        "server": "65535",
        "farm": 66,
        "title": "20210529-_87A3152-Edit.jpg",
        "ispublic": 1,
        "isfriend": 0,
        "isfamily": 0
      },
      {
        "id": "51228121757",
        "owner": "75553287@N00",
        "secret": "5202f8f78c",
        "server": "65535",
        "farm": 66,
        "title": "",
        "ispublic": 1,
        "isfriend": 0,
        "isfamily": 0
      },
      {
        "id": "51228122862",
        "owner": "142004787@N03",
        "secret": "412ee245f8",
        "server": "65535",
        "farm": 66,
        "title": "Perrito de Agua",
        "ispublic": 1,
        "isfriend": 0,
        "isfamily": 0
      },
      {
        "id": "51228123067",
        "owner": "149010237@N08",
        "secret": "d34687e1b9",
        "server": "65535",
        "farm": 66,
        "title": "2021_06_06_092232.jpg",
        "ispublic": 1,
        "isfriend": 0,
        "isfamily": 0
      },
      {
        "id": "51228123177",
        "owner": "193175000@N03",
        "secret": "757032c079",
        "server": "65535",
        "farm": 66,
        "title": "IMG_20210601_102820",
        "ispublic": 1,
        "isfriend": 0,
        "isfamily": 0
      },
      {
        "id": "51228123367",
        "owner": "138142355@N04",
        "secret": "d1124dedce",
        "server": "65535",
        "farm": 66,
        "title": "DSC_9513_DxO",
        "ispublic": 1,
        "isfriend": 0,
        "isfamily": 0
      },
      {
        "id": "51228123372",
        "owner": "155280467@N08",
        "secret": "e421702fb5",
        "server": "65535",
        "farm": 66,
        "title": "SaiGon",
        "ispublic": 1,
        "isfriend": 0,
        "isfamily": 0
      },
      {
        "id": "51228123382",
        "owner": "126198400@N07",
        "secret": "7f07bac23c",
        "server": "65535",
        "farm": 66,
        "title": "The old barn @ Texel",
        "ispublic": 1,
        "isfriend": 0,
        "isfamily": 0
      },
      {
        "id": "51228812921",
        "owner": "99335803@N02",
        "secret": "28c600de78",
        "server": "65535",
        "farm": 66,
        "title": "Barra do Cunhaú - RN",
        "ispublic": 1,
        "isfriend": 0,
        "isfamily": 0
      },
      {
        "id": "51228813076",
        "owner": "193149852@N05",
        "secret": "45d54141f6",
        "server": "65535",
        "farm": 66,
        "title": "Pole Mountain sunrise",
        "ispublic": 1,
        "isfriend": 0,
        "isfamily": 0
      },
      {
        "id": "51228814481",
        "owner": "183006480@N08",
        "secret": "43a223ed98",
        "server": "65535",
        "farm": 66,
        "title": "[ 📷 - 1315 ]",
        "ispublic": 1,
        "isfriend": 0,
        "isfamily": 0
      },
      {
        "id": "51228814561",
        "owner": "128655750@N05",
        "secret": "ea51c45156",
        "server": "65535",
        "farm": 66,
        "title": "",
        "ispublic": 1,
        "isfriend": 0,
        "isfamily": 0
      },
      {
        "id": "51228814671",
        "owner": "181744501@N08",
        "secret": "ed5bd37838",
        "server": "65535",
        "farm": 66,
        "title": "T-6 flight of 2",
        "ispublic": 1,
        "isfriend": 0,
        "isfamily": 0
      },
      {
        "id": "51228816011",
        "owner": "193154526@N05",
        "secret": "5665eb7045",
        "server": "65535",
        "farm": 66,
        "title": "\"I'm a guy who just wanted to see his name in the lineup everyday. To me, baseball was a passion to the point of obsession.\"",
        "ispublic": 1,
        "isfriend": 0,
        "isfamily": 0
      },
      {
        "id": "51228817786",
        "owner": "29958880@N00",
        "secret": "9cbbc4c72d",
        "server": "65535",
        "farm": 66,
        "title": "",
        "ispublic": 1,
        "isfriend": 0,
        "isfamily": 0
      },
      {
        "id": "51228817931",
        "owner": "152778426@N05",
        "secret": "5525368bcd",
        "server": "65535",
        "farm": 66,
        "title": "",
        "ispublic": 1,
        "isfriend": 0,
        "isfamily": 0
      },
      {
        "id": "51228818106",
        "owner": "85953937@N08",
        "secret": "0b4f457550",
        "server": "65535",
        "farm": 66,
        "title": "2021-06-06_04-17-16",
        "ispublic": 1,
        "isfriend": 0,
        "isfamily": 0
      },
      {
        "id": "51228818541",
        "owner": "8042260@N02",
        "secret": "8e57bb6816",
        "server": "65535",
        "farm": 66,
        "title": "2021.06.06",
        "ispublic": 1,
        "isfriend": 0,
        "isfamily": 0
      },
      {
        "id": "51228819261",
        "owner": "66947051@N07",
        "secret": "84baeaa57f",
        "server": "65535",
        "farm": 66,
        "title": "Palm warbler / Paruline à couronne rousse (Setophaga palmarum)",
        "ispublic": 1,
        "isfriend": 0,
        "isfamily": 0
      },
      {
        "id": "51228821411",
        "owner": "16357292@N06",
        "secret": "e7c56a6c10",
        "server": "65535",
        "farm": 66,
        "title": "Lake District",
        "ispublic": 1,
        "isfriend": 0,
        "isfamily": 0
      },
      {
        "id": "51228823391",
        "owner": "192360975@N05",
        "secret": "8b58e66143",
        "server": "65535",
        "farm": 66,
        "title": "\"My precious\"",
        "ispublic": 1,
        "isfriend": 0,
        "isfamily": 0
      },
      {
        "id": "51228823596",
        "owner": "182214716@N08",
        "secret": "024403385c",
        "server": "65535",
        "farm": 66,
        "title": "I don't know about this💋💋",
        "ispublic": 1,
        "isfriend": 0,
        "isfamily": 0
      },
      {
        "id": "51228825146",
        "owner": "192984884@N03",
        "secret": "13e2b76128",
        "server": "65535",
        "farm": 66,
        "title": "Mid term",
        "ispublic": 1,
        "isfriend": 0,
        "isfamily": 0
      },
      {
        "id": "51228827281",
        "owner": "190622906@N05",
        "secret": "737afe4acf",
        "server": "65535",
        "farm": 66,
        "title": "Full set of Spark Plug Leads NGK Smart City-Coupe Fortwo Roadster 0,6 0,7",
        "ispublic": 1,
        "isfriend": 0,
        "isfamily": 0
      },
      {
        "id": "51228827716",
        "owner": "13817902@N00",
        "secret": "e6ecf0a583",
        "server": "65535",
        "farm": 66,
        "title": "Rice Fields and Gum Drop Mountains",
        "ispublic": 1,
        "isfriend": 0,
        "isfamily": 0
      },
      {
        "id": "51228827846",
        "owner": "12639178@N07",
        "secret": "3f8c9c4fbf",
        "server": "65535",
        "farm": 66,
        "title": "Waldohreule",
        "ispublic": 1,
        "isfriend": 0,
        "isfamily": 0
      },
      {
        "id": "51228828271",
        "owner": "165770082@N02",
        "secret": "4b139eef32",
        "server": "65535",
        "farm": 66,
        "title": "",
        "ispublic": 1,
        "isfriend": 0,
        "isfamily": 0
      },
      {
        "id": "51228828751",
        "owner": "154328131@N02",
        "secret": "dae052ae45",
        "server": "65535",
        "farm": 66,
        "title": "Tan & Paul Wedding, 29th October 2019  Haadson Resort Phang Nga (292).JPG",
        "ispublic": 1,
        "isfriend": 0,
        "isfamily": 0
      },
      {
        "id": "51228828931",
        "owner": "18234353@N08",
        "secret": "69b86df68f",
        "server": "65535",
        "farm": 66,
        "title": "",
        "ispublic": 1,
        "isfriend": 0,
        "isfamily": 0
      },
      {
        "id": "51229030298",
        "owner": "55761160@N00",
        "secret": "b30a36f408",
        "server": "65535",
        "farm": 66,
        "title": "We had a child for the day",
        "ispublic": 1,
        "isfriend": 0,
        "isfamily": 0
      },
      {
        "id": "51229030303",
        "owner": "131477914@N03",
        "secret": "2055bfa54a",
        "server": "65535",
        "farm": 66,
        "title": "Grandma Sandy makes a lovely pillow in the car. He actually fell asleep.",
        "ispublic": 1,
        "isfriend": 0,
        "isfamily": 0
      },
      {
        "id": "51229030788",
        "owner": "190237590@N03",
        "secret": "dd17e0fd2b",
        "server": "65535",
        "farm": 66,
        "title": "RocketLeague_kvdPxkFF0K",
        "ispublic": 1,
        "isfriend": 0,
        "isfamily": 0
      },
      {
        "id": "51229031533",
        "owner": "193175040@N03",
        "secret": "d6fb099fd0",
        "server": "65535",
        "farm": 66,
        "title": "City ford bình triệu 0932789127",
        "ispublic": 1,
        "isfriend": 0,
        "isfamily": 0
      },
      {
        "id": "51229032243",
        "owner": "183727554@N08",
        "secret": "3dbb59f0bd",
        "server": "65535",
        "farm": 66,
        "title": "Killdeer Nest on Soft Rocks",
        "ispublic": 1,
        "isfriend": 0,
        "isfamily": 0
      },
      {
        "id": "51229034238",
        "owner": "56643848@N06",
        "secret": "af1921fa60",
        "server": "65535",
        "farm": 66,
        "title": "Christmas 2019 minisheet Portugal",
        "ispublic": 1,
        "isfriend": 0,
        "isfamily": 0
      },
      {
        "id": "51229034758",
        "owner": "99951143@N00",
        "secret": "9e3999719d",
        "server": "65535",
        "farm": 66,
        "title": "Ace Libatrix, landed.",
        "ispublic": 1,
        "isfriend": 0,
        "isfamily": 0
      },
      {
        "id": "51229034978",
        "owner": "142013002@N03",
        "secret": "fcf9a240ce",
        "server": "65535",
        "farm": 66,
        "title": "",
        "ispublic": 1,
        "isfriend": 0,
        "isfamily": 0
      },
      {
        "id": "51229035028",
        "owner": "191560869@N02",
        "secret": "e37abce371",
        "server": "65535",
        "farm": 66,
        "title": "file_52.jpg",
        "ispublic": 1,
        "isfriend": 0,
        "isfamily": 0
      },
      {
        "id": "51229035863",
        "owner": "193151978@N05",
        "secret": "fa1c5107f7",
        "server": "65535",
        "farm": 66,
        "title": "Romantic rose",
        "ispublic": 1,
        "isfriend": 0,
        "isfamily": 0
      },
      {
        "id": "51229037778",
        "owner": "75116064@N04",
        "secret": "7fbd97758c",
        "server": "65535",
        "farm": 66,
        "title": "Wild turkey",
        "ispublic": 1,
        "isfriend": 0,
        "isfamily": 0
      },
      {
        "id": "51229038708",
        "owner": "191724493@N05",
        "secret": "b07dd92d25",
        "server": "65535",
        "farm": 66,
        "title": "",
        "ispublic": 1,
        "isfriend": 0,
        "isfamily": 0
      },
      {
        "id": "51229041128",
        "owner": "9945877@N02",
        "secret": "c9da09f22d",
        "server": "65535",
        "farm": 66,
        "title": "",
        "ispublic": 1,
        "isfriend": 0,
        "isfamily": 0
      },
      {
        "id": "51229041303",
        "owner": "27619136@N03",
        "secret": "cbf60440e6",
        "server": "65535",
        "farm": 66,
        "title": "\"A Touch of Blue\" doing well out there",
        "ispublic": 1,
        "isfriend": 0,
        "isfamily": 0
      },
      {
        "id": "51229042668",
        "owner": "133558390@N07",
        "secret": "5852b5c8cf",
        "server": "65535",
        "farm": 66,
        "title": "DSC_0928-Edit.jpg",
        "ispublic": 1,
        "isfriend": 0,
        "isfamily": 0
      },
      {
        "id": "51229043213",
        "owner": "83894187@N04",
        "secret": "b5d3b1a1c5",
        "server": "65535",
        "farm": 66,
        "title": "'78 Dodge Li'l Red Express Pickup:",
        "ispublic": 1,
        "isfriend": 0,
        "isfamily": 0
      },
      {
        "id": "51229045943",
        "owner": "28161779@N02",
        "secret": "dd3a22f462",
        "server": "65535",
        "farm": 66,
        "title": "",
        "ispublic": 1,
        "isfriend": 0,
        "isfamily": 0
      },
      {
        "id": "51229583489",
        "owner": "149567335@N07",
        "secret": "034c45c829",
        "server": "65535",
        "farm": 66,
        "title": "N-2021-06-06-2315_f",
        "ispublic": 1,
        "isfriend": 0,
        "isfamily": 0
      },
      {
        "id": "51229585079",
        "owner": "193157935@N02",
        "secret": "ecd7a7e86d",
        "server": "65535",
        "farm": 66,
        "title": "",
        "ispublic": 1,
        "isfriend": 0,
        "isfamily": 0
      },
      {
        "id": "51229587089",
        "owner": "192303283@N07",
        "secret": "1872a4c170",
        "server": "65535",
        "farm": 66,
        "title": "66504_Edinburgh.",
        "ispublic": 1,
        "isfriend": 0,
        "isfamily": 0
      },
      {
        "id": "51229587914",
        "owner": "193089468@N03",
        "secret": "3bb49a8918",
        "server": "65535",
        "farm": 66,
        "title": "FiveM_b2060_GTAProcess_yJYUzUUemG",
        "ispublic": 1,
        "isfriend": 0,
        "isfamily": 0
      },
      {
        "id": "51229587934",
        "owner": "29012718@N00",
        "secret": "83443b0870",
        "server": "65535",
        "farm": 66,
        "title": "",
        "ispublic": 1,
        "isfriend": 0,
        "isfamily": 0
      },
      {
        "id": "51229588069",
        "owner": "189489688@N07",
        "secret": "c4eaf29a4e",
        "server": "65535",
        "farm": 66,
        "title": "photo",
        "ispublic": 1,
        "isfriend": 0,
        "isfamily": 0
      },
      {
        "id": "51229588394",
        "owner": "152275706@N07",
        "secret": "d5b3166b95",
        "server": "65535",
        "farm": 66,
        "title": "DIETRICH City 23 \"EE-277-ED\" en mise en ligne au Lycée Sud-Médoc",
        "ispublic": 1,
        "isfriend": 0,
        "isfamily": 0
      },
      {
        "id": "51229588554",
        "owner": "164642508@N03",
        "secret": "2e3f5c8283",
        "server": "65535",
        "farm": 66,
        "title": "2021.06.05.WorkParty.Laughing Brook",
        "ispublic": 1,
        "isfriend": 0,
        "isfamily": 0
      },
      {
        "id": "51229589044",
        "owner": "188049990@N08",
        "secret": "6ab587aa4b",
        "server": "65535",
        "farm": 66,
        "title": "55+ idées de piercing fossettes audacieuses et excitantes [with Guide]",
        "ispublic": 1,
        "isfriend": 0,
        "isfamily": 0
      },
      {
        "id": "51229589919",
        "owner": "166048634@N04",
        "secret": "4f92d63af7",
        "server": "65535",
        "farm": 66,
        "title": "Spiraea Japonica, June 2021",
        "ispublic": 1,
        "isfriend": 0,
        "isfamily": 0
      },
      {
        "id": "51229590119",
        "owner": "124481857@N07",
        "secret": "7baf9bfa39",
        "server": "65535",
        "farm": 66,
        "title": "20210529-IMGL5152.jpg",
        "ispublic": 1,
        "isfriend": 0,
        "isfamily": 0
      },
      {
        "id": "51229590469",
        "owner": "58454978@N07",
        "secret": "2bed0bc2e8",
        "server": "65535",
        "farm": 66,
        "title": "Northern Trains 170456 at Leeds Railway Station Platform 0",
        "ispublic": 1,
        "isfriend": 0,
        "isfamily": 0
      },
      {
        "id": "51229592664",
        "owner": "181781424@N02",
        "secret": "f8264fe506",
        "server": "65535",
        "farm": 66,
        "title": "",
        "ispublic": 1,
        "isfriend": 0,
        "isfamily": 0
      },
      {
        "id": "51229592944",
        "owner": "144751047@N05",
        "secret": "f54884431d",
        "server": "65535",
        "farm": 66,
        "title": "AssCom Dourado",
        "ispublic": 1,
        "isfriend": 0,
        "isfamily": 0
      },
      {
        "id": "51229593324",
        "owner": "56344115@N08",
        "secret": "50841ac8e7",
        "server": "65535",
        "farm": 66,
        "title": "DSC_3820.jpg",
        "ispublic": 1,
        "isfriend": 0,
        "isfamily": 0
      },
      {
        "id": "51229594679",
        "owner": "185605083@N05",
        "secret": "d257e19ea4",
        "server": "65535",
        "farm": 66,
        "title": "Did you know that the scallop edges are featured on lots of ELF shoes ♥️ all cut by hand for you  . . . . . . #balielf #myelfstyle #dress #handmade #madewithlove #slowfashion #genuineleather #customshoes #custommade #heels #highheels #newc",
        "ispublic": 1,
        "isfriend": 0,
        "isfamily": 0
      },
      {
        "id": "51229594974",
        "owner": "30346699@N03",
        "secret": "4d54c0a2d3",
        "server": "65535",
        "farm": 66,
        "title": "2673 Not Beating Out the Throw",
        "ispublic": 1,
        "isfriend": 0,
        "isfamily": 0
      },
      {
        "id": "51229595064",
        "owner": "193147677@N06",
        "secret": "31b38d5d64",
        "server": "65535",
        "farm": 66,
        "title": "Landing page - Услуги сантехника",
        "ispublic": 1,
        "isfriend": 0,
        "isfamily": 0
      },
      {
        "id": "51229595579",
        "owner": "155780104@N06",
        "secret": "9a03ca0907",
        "server": "65535",
        "farm": 66,
        "title": "lake",
        "ispublic": 1,
        "isfriend": 0,
        "isfamily": 0
      },
      {
        "id": "51229596104",
        "owner": "192970087@N06",
        "secret": "f8902f59f3",
        "server": "65535",
        "farm": 66,
        "title": "Seven_Seeds_vol01_ch03_p108",
        "ispublic": 1,
        "isfriend": 0,
        "isfamily": 0
      },
      {
        "id": "51229596314",
        "owner": "192425390@N04",
        "secret": "71bf2bae44",
        "server": "65535",
        "farm": 66,
        "title": "IMG_20210604_134422",
        "ispublic": 1,
        "isfriend": 0,
        "isfamily": 0
      },
      {
        "id": "51229883685",
        "owner": "62328475@N00",
        "secret": "c0ae4fb01c",
        "server": "65535",
        "farm": 66,
        "title": "21-06-06",
        "ispublic": 1,
        "isfriend": 0,
        "isfamily": 0
      },
      {
        "id": "51229883905",
        "owner": "160454596@N03",
        "secret": "a78aa648ff",
        "server": "65535",
        "farm": 66,
        "title": "A hut at the sea",
        "ispublic": 1,
        "isfriend": 0,
        "isfamily": 0
      },
      {
        "id": "51229884055",
        "owner": "190442461@N05",
        "secret": "3008a6aa51",
        "server": "65535",
        "farm": 66,
        "title": "SURIYA || GHAJINI",
        "ispublic": 1,
        "isfriend": 0,
        "isfamily": 0
      },
      {
        "id": "51229884150",
        "owner": "193164908@N03",
        "secret": "93074805b8",
        "server": "65535",
        "farm": 66,
        "title": "IMG20210505105727",
        "ispublic": 1,
        "isfriend": 0,
        "isfamily": 0
      },
      {
        "id": "51229886105",
        "owner": "73702687@N02",
        "secret": "d1a0fbe5a7",
        "server": "65535",
        "farm": 66,
        "title": "C-GBIN",
        "ispublic": 1,
        "isfriend": 0,
        "isfamily": 0
      },
      {
        "id": "51229886185",
        "owner": "51848551@N07",
        "secret": "fe113aea41",
        "server": "65535",
        "farm": 66,
        "title": "The Carmarthen Fleamarket",
        "ispublic": 1,
        "isfriend": 0,
        "isfamily": 0
      },
      {
        "id": "51229886370",
        "owner": "58519993@N06",
        "secret": "3f0e232edd",
        "server": "65535",
        "farm": 66,
        "title": "...",
        "ispublic": 1,
        "isfriend": 0,
        "isfamily": 0
      },
      {
        "id": "51229887200",
        "owner": "53008175@N08",
        "secret": "7f12467267",
        "server": "65535",
        "farm": 66,
        "title": "Cloudy Sunday selfie",
        "ispublic": 1,
        "isfriend": 0,
        "isfamily": 0
      },
      {
        "id": "51229887470",
        "owner": "190448270@N06",
        "secret": "bdefd3f848",
        "server": "65535",
        "farm": 66,
        "title": "Hidden",
        "ispublic": 1,
        "isfriend": 0,
        "isfamily": 0
      },
      {
        "id": "51229887980",
        "owner": "79350448@N06",
        "secret": "654b048275",
        "server": "65535",
        "farm": 66,
        "title": "",
        "ispublic": 1,
        "isfriend": 0,
        "isfamily": 0
      },
      {
        "id": "51229888150",
        "owner": "61343676@N07",
        "secret": "b82cdc1e6a",
        "server": "65535",
        "farm": 66,
        "title": "Sunrise over Lac Chapleau, QC, Canada",
        "ispublic": 1,
        "isfriend": 0,
        "isfamily": 0
      },
      {
        "id": "51229888230",
        "owner": "32527990@N00",
        "secret": "4d3db35324",
        "server": "65535",
        "farm": 66,
        "title": "",
        "ispublic": 1,
        "isfriend": 0,
        "isfamily": 0
      },
      {
        "id": "51229888385",
        "owner": "146400574@N07",
        "secret": "b554799c28",
        "server": "65535",
        "farm": 66,
        "title": "",
        "ispublic": 1,
        "isfriend": 0,
        "isfamily": 0
      },
      {
        "id": "51229888645",
        "owner": "78595506@N03",
        "secret": "40a25fecca",
        "server": "65535",
        "farm": 66,
        "title": "",
        "ispublic": 1,
        "isfriend": 0,
        "isfamily": 0
      },
      {
        "id": "51229891435",
        "owner": "92848134@N04",
        "secret": "00436879c6",
        "server": "65535",
        "farm": 66,
        "title": "Der Adlerbogen am Donnersberg Wanderung Rheinland-Pfalz Deutschland",
        "ispublic": 1,
        "isfriend": 0,
        "isfamily": 0
      },
      {
        "id": "51229891530",
        "owner": "141593400@N06",
        "secret": "c87b597ded",
        "server": "65535",
        "farm": 66,
        "title": "SB86 Willich-Münchheide Otto-Brenner-Straße | Herlitschka (i. A. BVR) | Mercedes-Benz O 530 Citaro |",
        "ispublic": 1,
        "isfriend": 0,
        "isfamily": 0
      },
      {
        "id": "51229891875",
        "owner": "188797286@N04",
        "secret": "8717620971",
        "server": "65535",
        "farm": 66,
        "title": "CROMATICA Hair Moving Style",
        "ispublic": 1,
        "isfriend": 0,
        "isfamily": 0
      },
      {
        "id": "51229892745",
        "owner": "189933090@N06",
        "secret": "cb7be8c386",
        "server": "65535",
        "farm": 66,
        "title": "Boiling Water Tap Specialists #Alconbury Weston #Cambridgeshire #boilingwatertap #watertap #water #boilingwater #boilingtap #hottap #hotwatertap #hotwater https://t.co/2zzB8vaSWC https://t.co/FyQEK6hHNs",
        "ispublic": 1,
        "isfriend": 0,
        "isfamily": 0
      },
      {
        "id": "51229893975",
        "owner": "185994241@N03",
        "secret": "aacfdb9a60",
        "server": "65535",
        "farm": 66,
        "title": "White Majestic",
        "ispublic": 1,
        "isfriend": 0,
        "isfamily": 0
      },
      {
        "id": "51229895185",
        "owner": "97102756@N07",
        "secret": "d4d59e91b1",
        "server": "65535",
        "farm": 66,
        "title": "N-2021-06-06-2320_f",
        "ispublic": 1,
        "isfriend": 0,
        "isfamily": 0
      },
      {
        "id": "51229895610",
        "owner": "193025804@N06",
        "secret": "20364e2b52",
        "server": "65535",
        "farm": 66,
        "title": "Maa Vaishnavi Kali Mandir Saraiya Basti Saraiyahat। माँ वैष्णवी काली मंदिर सरैया बस्ती सरैयाहाट",
        "ispublic": 1,
        "isfriend": 0,
        "isfamily": 0
      },
      {
        "id": "51229896140",
        "owner": "165417781@N05",
        "secret": "dd2291a621",
        "server": "65535",
        "farm": 66,
        "title": "Vacaciones Verano 2020-11.jpg",
        "ispublic": 1,
        "isfriend": 0,
        "isfamily": 0
      },
      {
        "id": "51229896210",
        "owner": "131840195@N08",
        "secret": "1a05dfcfa7",
        "server": "65535",
        "farm": 66,
        "title": "2021-06-06_04-20-51",
        "ispublic": 1,
        "isfriend": 0,
        "isfamily": 0
      },
      {
        "id": "51229897790",
        "owner": "9472244@N02",
        "secret": "d6650797b3",
        "server": "65535",
        "farm": 66,
        "title": "20101106-2690",
        "ispublic": 1,
        "isfriend": 0,
        "isfamily": 0
      }
    ]
  },
  "stat": "ok"
}